%YAML 1.1
%TAG !u! tag:unity3d.com,2011:
--- !u!1001 &6638210108151619231
PrefabInstance:
  m_ObjectHideFlags: 0
  serializedVersion: 2
  m_Modification:
    serializedVersion: 3
    m_TransformParent: {fileID: 0}
    m_Modifications:
    - target: {fileID: 318798465696407170, guid: fb70673dfc5326646b56ddd41ff14045, type: 3}
      propertyPath: m_IsActive
      value: 0
      objectReference: {fileID: 0}
    - target: {fileID: 1896638761754224780, guid: fb70673dfc5326646b56ddd41ff14045, type: 3}
      propertyPath: _ID
      value: 1
      objectReference: {fileID: 0}
    - target: {fileID: 1896638761754224780, guid: fb70673dfc5326646b56ddd41ff14045, type: 3}
      propertyPath: Description
      value: 'Druid Music: Tame carnivorous creatures while keeping their instinct'
      objectReference: {fileID: 0}
    - target: {fileID: 2048420205386714320, guid: fb70673dfc5326646b56ddd41ff14045, type: 3}
      propertyPath: m_LocalPosition.x
      value: -3.13
      objectReference: {fileID: 0}
    - target: {fileID: 2048420205386714320, guid: fb70673dfc5326646b56ddd41ff14045, type: 3}
      propertyPath: m_LocalPosition.y
      value: 5.03
      objectReference: {fileID: 0}
    - target: {fileID: 2048420205386714320, guid: fb70673dfc5326646b56ddd41ff14045, type: 3}
      propertyPath: m_LocalPosition.z
      value: 0
      objectReference: {fileID: 0}
    - target: {fileID: 2048420205386714320, guid: fb70673dfc5326646b56ddd41ff14045, type: 3}
      propertyPath: m_LocalRotation.w
      value: 1
      objectReference: {fileID: 0}
    - target: {fileID: 2048420205386714320, guid: fb70673dfc5326646b56ddd41ff14045, type: 3}
      propertyPath: m_LocalRotation.x
      value: 0
      objectReference: {fileID: 0}
    - target: {fileID: 2048420205386714320, guid: fb70673dfc5326646b56ddd41ff14045, type: 3}
      propertyPath: m_LocalRotation.y
      value: 0
      objectReference: {fileID: 0}
    - target: {fileID: 2048420205386714320, guid: fb70673dfc5326646b56ddd41ff14045, type: 3}
      propertyPath: m_LocalRotation.z
      value: 0
      objectReference: {fileID: 0}
    - target: {fileID: 2048420205386714320, guid: fb70673dfc5326646b56ddd41ff14045, type: 3}
      propertyPath: m_LocalEulerAnglesHint.x
      value: 0
      objectReference: {fileID: 0}
    - target: {fileID: 2048420205386714320, guid: fb70673dfc5326646b56ddd41ff14045, type: 3}
      propertyPath: m_LocalEulerAnglesHint.y
      value: 0
      objectReference: {fileID: 0}
    - target: {fileID: 2048420205386714320, guid: fb70673dfc5326646b56ddd41ff14045, type: 3}
      propertyPath: m_LocalEulerAnglesHint.z
      value: 0
      objectReference: {fileID: 0}
    - target: {fileID: 2851902362940194528, guid: fb70673dfc5326646b56ddd41ff14045, type: 3}
      propertyPath: m_LocalPosition.y
      value: 0
      objectReference: {fileID: 0}
    - target: {fileID: 3020307419060402716, guid: fb70673dfc5326646b56ddd41ff14045, type: 3}
      propertyPath: m_Points.m_Paths.Array.data[0].Array.size
      value: 9
      objectReference: {fileID: 0}
    - target: {fileID: 3020307419060402716, guid: fb70673dfc5326646b56ddd41ff14045, type: 3}
      propertyPath: m_Points.m_Paths.Array.data[0].Array.data[0].x
      value: 0.4859653
      objectReference: {fileID: 0}
    - target: {fileID: 3020307419060402716, guid: fb70673dfc5326646b56ddd41ff14045, type: 3}
      propertyPath: m_Points.m_Paths.Array.data[0].Array.data[0].y
      value: 0.052179575
      objectReference: {fileID: 0}
    - target: {fileID: 3020307419060402716, guid: fb70673dfc5326646b56ddd41ff14045, type: 3}
      propertyPath: m_Points.m_Paths.Array.data[0].Array.data[1].x
      value: -0.52593744
      objectReference: {fileID: 0}
    - target: {fileID: 3020307419060402716, guid: fb70673dfc5326646b56ddd41ff14045, type: 3}
      propertyPath: m_Points.m_Paths.Array.data[0].Array.data[1].y
      value: 0.096981764
      objectReference: {fileID: 0}
    - target: {fileID: 3020307419060402716, guid: fb70673dfc5326646b56ddd41ff14045, type: 3}
      propertyPath: m_Points.m_Paths.Array.data[0].Array.data[2].x
      value: -0.6292535
      objectReference: {fileID: 0}
    - target: {fileID: 3020307419060402716, guid: fb70673dfc5326646b56ddd41ff14045, type: 3}
      propertyPath: m_Points.m_Paths.Array.data[0].Array.data[2].y
      value: -0.8191235
      objectReference: {fileID: 0}
    - target: {fileID: 3020307419060402716, guid: fb70673dfc5326646b56ddd41ff14045, type: 3}
      propertyPath: m_Points.m_Paths.Array.data[0].Array.data[3].x
      value: -0.37120312
      objectReference: {fileID: 0}
    - target: {fileID: 3020307419060402716, guid: fb70673dfc5326646b56ddd41ff14045, type: 3}
      propertyPath: m_Points.m_Paths.Array.data[0].Array.data[3].y
      value: -1.219891
      objectReference: {fileID: 0}
    - target: {fileID: 3020307419060402716, guid: fb70673dfc5326646b56ddd41ff14045, type: 3}
      propertyPath: m_Points.m_Paths.Array.data[0].Array.data[4].x
      value: -0.01010251
      objectReference: {fileID: 0}
    - target: {fileID: 3020307419060402716, guid: fb70673dfc5326646b56ddd41ff14045, type: 3}
      propertyPath: m_Points.m_Paths.Array.data[0].Array.data[4].y
      value: -1.3632529
      objectReference: {fileID: 0}
    - target: {fileID: 3020307419060402716, guid: fb70673dfc5326646b56ddd41ff14045, type: 3}
      propertyPath: m_Points.m_Paths.Array.data[0].Array.data[5].x
      value: 0.4584217
      objectReference: {fileID: 0}
    - target: {fileID: 3020307419060402716, guid: fb70673dfc5326646b56ddd41ff14045, type: 3}
      propertyPath: m_Points.m_Paths.Array.data[0].Array.data[5].y
      value: -1.1508157
      objectReference: {fileID: 0}
    - target: {fileID: 3020307419060402716, guid: fb70673dfc5326646b56ddd41ff14045, type: 3}
      propertyPath: m_Points.m_Paths.Array.data[0].Array.data[6].x
      value: 0.63618875
      objectReference: {fileID: 0}
    - target: {fileID: 3020307419060402716, guid: fb70673dfc5326646b56ddd41ff14045, type: 3}
      propertyPath: m_Points.m_Paths.Array.data[0].Array.data[6].y
      value: -0.6051415
      objectReference: {fileID: 0}
    - target: {fileID: 3020307419060402716, guid: fb70673dfc5326646b56ddd41ff14045, type: 3}
      propertyPath: m_Points.m_Paths.Array.data[0].Array.data[7].x
      value: 0.46603012
      objectReference: {fileID: 0}
    - target: {fileID: 3020307419060402716, guid: fb70673dfc5326646b56ddd41ff14045, type: 3}
      propertyPath: m_Points.m_Paths.Array.data[0].Array.data[7].y
      value: -0.29114676
      objectReference: {fileID: 0}
    - target: {fileID: 3020307419060402716, guid: fb70673dfc5326646b56ddd41ff14045, type: 3}
      propertyPath: m_Points.m_Paths.Array.data[0].Array.data[8].x
      value: 0.6096338
      objectReference: {fileID: 0}
    - target: {fileID: 3020307419060402716, guid: fb70673dfc5326646b56ddd41ff14045, type: 3}
      propertyPath: m_Points.m_Paths.Array.data[0].Array.data[8].y
      value: -0.16207957
      objectReference: {fileID: 0}
    - target: {fileID: 3821816419779328281, guid: fb70673dfc5326646b56ddd41ff14045, type: 3}
      propertyPath: m_Sprite
      value: 
      objectReference: {fileID: -1385533173, guid: 0134dee877a62dd4faa4a93a54bf21b6, type: 3}
    - target: {fileID: 3821816419779328281, guid: fb70673dfc5326646b56ddd41ff14045, type: 3}
      propertyPath: m_Color.a
      value: 1
      objectReference: {fileID: 0}
    - target: {fileID: 3821816419779328281, guid: fb70673dfc5326646b56ddd41ff14045, type: 3}
      propertyPath: m_Color.b
      value: 1
      objectReference: {fileID: 0}
    - target: {fileID: 3821816419779328281, guid: fb70673dfc5326646b56ddd41ff14045, type: 3}
      propertyPath: m_Color.g
      value: 1
      objectReference: {fileID: 0}
    - target: {fileID: 3821816419779328281, guid: fb70673dfc5326646b56ddd41ff14045, type: 3}
      propertyPath: m_Color.r
      value: 1
      objectReference: {fileID: 0}
    - target: {fileID: 4358459054461358148, guid: fb70673dfc5326646b56ddd41ff14045, type: 3}
      propertyPath: m_Name
      value: UIButtonMusicDruid Variant
      objectReference: {fileID: 0}
    - target: {fileID: 6063197587148929096, guid: fb70673dfc5326646b56ddd41ff14045, type: 3}
      propertyPath: m_LocalPosition.y
      value: 0
      objectReference: {fileID: 0}
    - target: {fileID: 6149489176760544073, guid: fb70673dfc5326646b56ddd41ff14045, type: 3}
      propertyPath: m_Size.x
      value: 1.2677419
      objectReference: {fileID: 0}
    - target: {fileID: 6149489176760544073, guid: fb70673dfc5326646b56ddd41ff14045, type: 3}
      propertyPath: m_Size.y
      value: 1.5131093
      objectReference: {fileID: 0}
    - target: {fileID: 6149489176760544073, guid: fb70673dfc5326646b56ddd41ff14045, type: 3}
      propertyPath: m_Sprite
      value: 
      objectReference: {fileID: 1213174458, guid: 320899193bd33be48b2c1ec0d94aec96, type: 3}
    - target: {fileID: 6149489176760544073, guid: fb70673dfc5326646b56ddd41ff14045, type: 3}
      propertyPath: m_WasSpriteAssigned
      value: 1
      objectReference: {fileID: 0}
    - target: {fileID: 6697396011566741175, guid: fb70673dfc5326646b56ddd41ff14045, type: 3}
      propertyPath: duration
      value: 0.15
      objectReference: {fileID: 0}
    - target: {fileID: 6697396011566741175, guid: fb70673dfc5326646b56ddd41ff14045, type: 3}
      propertyPath: xSqueeze
      value: 0.8
      objectReference: {fileID: 0}
    - target: {fileID: 6697396011566741175, guid: fb70673dfc5326646b56ddd41ff14045, type: 3}
      propertyPath: ySqueeze
      value: 1.2
      objectReference: {fileID: 0}
    - target: {fileID: 6697396011566741175, guid: fb70673dfc5326646b56ddd41ff14045, type: 3}
      propertyPath: isInstant
      value: 0
      objectReference: {fileID: 0}
    m_RemovedComponents: []
    m_RemovedGameObjects: []
    m_AddedGameObjects: []
    m_AddedComponents: []
  m_SourcePrefab: {fileID: 100100000, guid: fb70673dfc5326646b56ddd41ff14045, type: 3}
