%YAML 1.1
%TAG !u! tag:unity3d.com,2011:
--- !u!1001 &8743102062504121116
PrefabInstance:
  m_ObjectHideFlags: 0
  serializedVersion: 2
  m_Modification:
    serializedVersion: 3
    m_TransformParent: {fileID: 0}
    m_Modifications:
    - target: {fileID: 318798465696407170, guid: fb70673dfc5326646b56ddd41ff14045, type: 3}
      propertyPath: m_IsActive
      value: 0
      objectReference: {fileID: 0}
    - target: {fileID: 1896638761754224780, guid: fb70673dfc5326646b56ddd41ff14045, type: 3}
      propertyPath: _ID
      value: 3
      objectReference: {fileID: 0}
    - target: {fileID: 1896638761754224780, guid: fb70673dfc5326646b56ddd41ff14045, type: 3}
      propertyPath: Description
      value: 'Sorcerer Music: Boost strength and speed'
      objectReference: {fileID: 0}
    - target: {fileID: 2048420205386714320, guid: fb70673dfc5326646b56ddd41ff14045, type: 3}
      propertyPath: m_LocalPosition.x
      value: -1
      objectReference: {fileID: 0}
    - target: {fileID: 2048420205386714320, guid: fb70673dfc5326646b56ddd41ff14045, type: 3}
      propertyPath: m_LocalPosition.y
      value: 5.03
      objectReference: {fileID: 0}
    - target: {fileID: 2048420205386714320, guid: fb70673dfc5326646b56ddd41ff14045, type: 3}
      propertyPath: m_LocalPosition.z
      value: 0
      objectReference: {fileID: 0}
    - target: {fileID: 2048420205386714320, guid: fb70673dfc5326646b56ddd41ff14045, type: 3}
      propertyPath: m_LocalRotation.w
      value: 1
      objectReference: {fileID: 0}
    - target: {fileID: 2048420205386714320, guid: fb70673dfc5326646b56ddd41ff14045, type: 3}
      propertyPath: m_LocalRotation.x
      value: 0
      objectReference: {fileID: 0}
    - target: {fileID: 2048420205386714320, guid: fb70673dfc5326646b56ddd41ff14045, type: 3}
      propertyPath: m_LocalRotation.y
      value: 0
      objectReference: {fileID: 0}
    - target: {fileID: 2048420205386714320, guid: fb70673dfc5326646b56ddd41ff14045, type: 3}
      propertyPath: m_LocalRotation.z
      value: 0
      objectReference: {fileID: 0}
    - target: {fileID: 2048420205386714320, guid: fb70673dfc5326646b56ddd41ff14045, type: 3}
      propertyPath: m_LocalEulerAnglesHint.x
      value: 0
      objectReference: {fileID: 0}
    - target: {fileID: 2048420205386714320, guid: fb70673dfc5326646b56ddd41ff14045, type: 3}
      propertyPath: m_LocalEulerAnglesHint.y
      value: 0
      objectReference: {fileID: 0}
    - target: {fileID: 2048420205386714320, guid: fb70673dfc5326646b56ddd41ff14045, type: 3}
      propertyPath: m_LocalEulerAnglesHint.z
      value: 0
      objectReference: {fileID: 0}
    - target: {fileID: 2851902362940194528, guid: fb70673dfc5326646b56ddd41ff14045, type: 3}
      propertyPath: m_LocalPosition.x
      value: 0
      objectReference: {fileID: 0}
    - target: {fileID: 2851902362940194528, guid: fb70673dfc5326646b56ddd41ff14045, type: 3}
      propertyPath: m_LocalPosition.y
      value: 0
      objectReference: {fileID: 0}
    - target: {fileID: 3020307419060402716, guid: fb70673dfc5326646b56ddd41ff14045, type: 3}
      propertyPath: m_Points.m_Paths.Array.data[0].Array.size
      value: 12
      objectReference: {fileID: 0}
    - target: {fileID: 3020307419060402716, guid: fb70673dfc5326646b56ddd41ff14045, type: 3}
      propertyPath: m_Points.m_Paths.Array.data[0].Array.data[0].x
      value: -0.34632456
      objectReference: {fileID: 0}
    - target: {fileID: 3020307419060402716, guid: fb70673dfc5326646b56ddd41ff14045, type: 3}
      propertyPath: m_Points.m_Paths.Array.data[0].Array.data[0].y
      value: -0.02088213
      objectReference: {fileID: 0}
    - target: {fileID: 3020307419060402716, guid: fb70673dfc5326646b56ddd41ff14045, type: 3}
      propertyPath: m_Points.m_Paths.Array.data[0].Array.data[1].x
      value: -0.4104843
      objectReference: {fileID: 0}
    - target: {fileID: 3020307419060402716, guid: fb70673dfc5326646b56ddd41ff14045, type: 3}
      propertyPath: m_Points.m_Paths.Array.data[0].Array.data[1].y
      value: 0.09658241
      objectReference: {fileID: 0}
    - target: {fileID: 3020307419060402716, guid: fb70673dfc5326646b56ddd41ff14045, type: 3}
      propertyPath: m_Points.m_Paths.Array.data[0].Array.data[2].x
      value: -0.7891919
      objectReference: {fileID: 0}
    - target: {fileID: 3020307419060402716, guid: fb70673dfc5326646b56ddd41ff14045, type: 3}
      propertyPath: m_Points.m_Paths.Array.data[0].Array.data[2].y
      value: 0.16290021
      objectReference: {fileID: 0}
    - target: {fileID: 3020307419060402716, guid: fb70673dfc5326646b56ddd41ff14045, type: 3}
      propertyPath: m_Points.m_Paths.Array.data[0].Array.data[3].x
      value: -1.1348897
      objectReference: {fileID: 0}
    - target: {fileID: 3020307419060402716, guid: fb70673dfc5326646b56ddd41ff14045, type: 3}
      propertyPath: m_Points.m_Paths.Array.data[0].Array.data[3].y
      value: 0.07791543
      objectReference: {fileID: 0}
    - target: {fileID: 3020307419060402716, guid: fb70673dfc5326646b56ddd41ff14045, type: 3}
      propertyPath: m_Points.m_Paths.Array.data[0].Array.data[4].x
      value: -1.1598227
      objectReference: {fileID: 0}
    - target: {fileID: 3020307419060402716, guid: fb70673dfc5326646b56ddd41ff14045, type: 3}
      propertyPath: m_Points.m_Paths.Array.data[0].Array.data[4].y
      value: -0.3836975
      objectReference: {fileID: 0}
    - target: {fileID: 3020307419060402716, guid: fb70673dfc5326646b56ddd41ff14045, type: 3}
      propertyPath: m_Points.m_Paths.Array.data[0].Array.data[5].x
      value: -1.1345294
      objectReference: {fileID: 0}
    - target: {fileID: 3020307419060402716, guid: fb70673dfc5326646b56ddd41ff14045, type: 3}
      propertyPath: m_Points.m_Paths.Array.data[0].Array.data[5].y
      value: -0.6185088
      objectReference: {fileID: 0}
    - target: {fileID: 3020307419060402716, guid: fb70673dfc5326646b56ddd41ff14045, type: 3}
      propertyPath: m_Points.m_Paths.Array.data[0].Array.data[6].x
      value: -1.107341
      objectReference: {fileID: 0}
    - target: {fileID: 3020307419060402716, guid: fb70673dfc5326646b56ddd41ff14045, type: 3}
      propertyPath: m_Points.m_Paths.Array.data[0].Array.data[6].y
      value: -0.78513384
      objectReference: {fileID: 0}
    - target: {fileID: 3020307419060402716, guid: fb70673dfc5326646b56ddd41ff14045, type: 3}
      propertyPath: m_Points.m_Paths.Array.data[0].Array.data[7].x
      value: -1.0505031
      objectReference: {fileID: 0}
    - target: {fileID: 3020307419060402716, guid: fb70673dfc5326646b56ddd41ff14045, type: 3}
      propertyPath: m_Points.m_Paths.Array.data[0].Array.data[7].y
      value: -1.3132117
      objectReference: {fileID: 0}
    - target: {fileID: 3020307419060402716, guid: fb70673dfc5326646b56ddd41ff14045, type: 3}
      propertyPath: m_Points.m_Paths.Array.data[0].Array.data[8].x
      value: -0.686184
      objectReference: {fileID: 0}
    - target: {fileID: 3020307419060402716, guid: fb70673dfc5326646b56ddd41ff14045, type: 3}
      propertyPath: m_Points.m_Paths.Array.data[0].Array.data[8].y
      value: -1.4024118
      objectReference: {fileID: 0}
    - target: {fileID: 3020307419060402716, guid: fb70673dfc5326646b56ddd41ff14045, type: 3}
      propertyPath: m_Points.m_Paths.Array.data[0].Array.data[9].x
      value: -0.48205614
      objectReference: {fileID: 0}
    - target: {fileID: 3020307419060402716, guid: fb70673dfc5326646b56ddd41ff14045, type: 3}
      propertyPath: m_Points.m_Paths.Array.data[0].Array.data[9].y
      value: -1.2858927
      objectReference: {fileID: 0}
    - target: {fileID: 3020307419060402716, guid: fb70673dfc5326646b56ddd41ff14045, type: 3}
      propertyPath: m_Points.m_Paths.Array.data[0].Array.data[10].x
      value: -0.4040904
      objectReference: {fileID: 0}
    - target: {fileID: 3020307419060402716, guid: fb70673dfc5326646b56ddd41ff14045, type: 3}
      propertyPath: m_Points.m_Paths.Array.data[0].Array.data[10].y
      value: -0.69231594
      objectReference: {fileID: 0}
    - target: {fileID: 3020307419060402716, guid: fb70673dfc5326646b56ddd41ff14045, type: 3}
      propertyPath: m_Points.m_Paths.Array.data[0].Array.data[11].x
      value: -0.41497338
      objectReference: {fileID: 0}
    - target: {fileID: 3020307419060402716, guid: fb70673dfc5326646b56ddd41ff14045, type: 3}
      propertyPath: m_Points.m_Paths.Array.data[0].Array.data[11].y
      value: -0.5552242
      objectReference: {fileID: 0}
    - target: {fileID: 3821816419779328281, guid: fb70673dfc5326646b56ddd41ff14045, type: 3}
      propertyPath: m_Sprite
      value: 
      objectReference: {fileID: -868660985, guid: 180ef8f907b3da04ab6cbc2d32668de4, type: 3}
    - target: {fileID: 3821816419779328281, guid: fb70673dfc5326646b56ddd41ff14045, type: 3}
      propertyPath: m_Color.a
      value: 1
      objectReference: {fileID: 0}
    - target: {fileID: 3821816419779328281, guid: fb70673dfc5326646b56ddd41ff14045, type: 3}
      propertyPath: m_Color.b
      value: 1
      objectReference: {fileID: 0}
    - target: {fileID: 3821816419779328281, guid: fb70673dfc5326646b56ddd41ff14045, type: 3}
      propertyPath: m_Color.g
      value: 1
      objectReference: {fileID: 0}
    - target: {fileID: 3821816419779328281, guid: fb70673dfc5326646b56ddd41ff14045, type: 3}
      propertyPath: m_Color.r
      value: 1
      objectReference: {fileID: 0}
    - target: {fileID: 4358459054461358148, guid: fb70673dfc5326646b56ddd41ff14045, type: 3}
      propertyPath: m_Name
      value: UIButtonMusicSorcerer Variant
      objectReference: {fileID: 0}
    - target: {fileID: 6063197587148929096, guid: fb70673dfc5326646b56ddd41ff14045, type: 3}
      propertyPath: m_LocalPosition.x
      value: 0
      objectReference: {fileID: 0}
    - target: {fileID: 6063197587148929096, guid: fb70673dfc5326646b56ddd41ff14045, type: 3}
      propertyPath: m_LocalPosition.y
      value: 0
      objectReference: {fileID: 0}
    - target: {fileID: 6149489176760544073, guid: fb70673dfc5326646b56ddd41ff14045, type: 3}
      propertyPath: m_Size.x
      value: 0.8713333
      objectReference: {fileID: 0}
    - target: {fileID: 6149489176760544073, guid: fb70673dfc5326646b56ddd41ff14045, type: 3}
      propertyPath: m_Size.y
      value: 1.5595456
      objectReference: {fileID: 0}
    - target: {fileID: 6149489176760544073, guid: fb70673dfc5326646b56ddd41ff14045, type: 3}
      propertyPath: m_Sprite
      value: 
      objectReference: {fileID: -1557330708, guid: 815d21ee8179ffe4e9c09f01330b53d0, type: 3}
    - target: {fileID: 6149489176760544073, guid: fb70673dfc5326646b56ddd41ff14045, type: 3}
      propertyPath: m_WasSpriteAssigned
      value: 1
      objectReference: {fileID: 0}
    m_RemovedComponents: []
    m_RemovedGameObjects: []
    m_AddedGameObjects: []
    m_AddedComponents: []
  m_SourcePrefab: {fileID: 100100000, guid: fb70673dfc5326646b56ddd41ff14045, type: 3}
