%YAML 1.1
%TAG !u! tag:unity3d.com,2011:
--- !u!114 &11400000
MonoBehaviour:
  m_ObjectHideFlags: 0
  m_CorrespondingSourceObject: {fileID: 0}
  m_PrefabInstance: {fileID: 0}
  m_PrefabAsset: {fileID: 0}
  m_GameObject: {fileID: 0}
  m_Enabled: 1
  m_EditorHideFlags: 0
  m_Script: {fileID: 11500000, guid: ca6551010ac78234e8c8d8c89eeb2345, type: 3}
  m_Name: ReceptionTask
  m_EditorClassIdentifier: 
  <Descriptions>k__BackingField:
  - Listen carefully, I need you to summon a monster for me. It's crucial that this
    creature possesses eXceptional speed, as it will serve as a waiter at a reception.
  - It should be <wave><color=#FF9104>nimble and swift</color></wave>, its appearance
    should be <wave><color=#FF9104>not too intimidating</color></wave>. Can you manage
    that?
  _defaultEvent: {fileID: 11400000, guid: 1bad4ae78ef6ccc4d9df3e77d992e659, type: 2}
  _endingEvents:
  - Prio: 1
    endingEvents: {fileID: 11400000, guid: 85181f5389935de4381047d7f5242f79, type: 2}
  - Prio: 2
    endingEvents: {fileID: 11400000, guid: caade4a24c8f78843874e62c19399e7e, type: 2}
  - Prio: 3
    endingEvents: {fileID: 11400000, guid: 85fa308236ac82b4c9ec7b6b633b5cff, type: 2}
