%YAML 1.1
%TAG !u! tag:unity3d.com,2011:
--- !u!114 &11400000
MonoBehaviour:
  m_ObjectHideFlags: 0
  m_CorrespondingSourceObject: {fileID: 0}
  m_PrefabInstance: {fileID: 0}
  m_PrefabAsset: {fileID: 0}
  m_GameObject: {fileID: 0}
  m_Enabled: 1
  m_EditorHideFlags: 0
  m_Script: {fileID: 11500000, guid: e97a24a70e213bd408689b6af10f1e6f, type: 3}
  m_Name: GameSettings
  m_EditorClassIdentifier: 
  fruitSettings:
    _fruits:
    - {fileID: 153205099601689576, guid: db0f927b89f638b479c558066f3d38ec, type: 3}
    - {fileID: 153205099601689576, guid: 36321b48905048b469d5cdb9f432bdc1, type: 3}
    - {fileID: 153205099601689576, guid: 8cbfbdddcc33b614b9b62603f4e83562, type: 3}
    - {fileID: 153205099601689576, guid: 9c8c3994807bd724980b05eb2f899f4c, type: 3}
    - {fileID: 153205099601689576, guid: 1b399eb01bc756548a98c5e2ed3927bf, type: 3}
    - {fileID: 153205099601689576, guid: 162c003278df7684598ebc256704f46c, type: 3}
    - {fileID: 153205099601689576, guid: fb56e84f80c1adb488a2f20f4e809a53, type: 3}
    - {fileID: 153205099601689576, guid: a1ae6641cf1c03f4c83d038f5afbfafe, type: 3}
    - {fileID: 153205099601689576, guid: 1a77fe3748e202343aa42c6d20209584, type: 3}
    - {fileID: 153205099601689576, guid: 5ce954aa762e3d543b27424deffbd5fb, type: 3}
    - {fileID: 265987685885368367, guid: 14eab75997368aa42b3a063fd176b40b, type: 3}
  wasteSettings:
    _waste: {fileID: 1210032354394789596, guid: 194acf3b3962146439af273844b1fbea, type: 3}
  spawnerSettings:
    _fruitsSpawnChances:
    - _index: 0
      _chance: 0.3
    - _index: 1
      _chance: 0.25
    - _index: 2
      _chance: 0.2
    - _index: 3
      _chance: 0.15
    - _index: 4
      _chance: 0.1
    _spawnTimeOut: 0.2
    _moveSpeed: 3
    _forceRelease: 0
    _holdCooldown: 0.25
  scoreManagerSettings:
    _comboDuration: 3
    _comboStopAfterNThrow: 1
  highScoreManagerSettings:
    _leaderBoardId: ClassicMode
  fallingSpeedManagerSettings:
    _dynamicFallingSpeed: 0
    _fallingSpeedModifier: 1000
    _impactSpeed: 10
  forceReleaseDelayManagerSettings:
    _minScore: 100
    _maxScore: 10000
    _minDelay: 0
    _maxDelay: 3
