%YAML 1.1
%TAG !u! tag:unity3d.com,2011:
--- !u!1045 &1
EditorBuildSettings:
  m_ObjectHideFlags: 0
  serializedVersion: 2
  m_Scenes:
  - enabled: 1
    path: Assets/Scenes/Title.unity
    guid: 0c9dc5b8ae7d0da42b6d4d0c8146c597
  - enabled: 1
    path: Assets/Scenes/Game.unity
    guid: c116c35f273cdea4ca7e45ab9f207a8b
  m_configObjects:
    com.unity.addressableassets: {fileID: 11400000, guid: 089a94c60335db744adfb6450d6298ba, type: 2}
    com.unity.localization.settings: {fileID: 11400000, guid: bbf5de2de96216f4c83842c0f0d5bbf5, type: 2}
