%YAML 1.1
%TAG !u! tag:unity3d.com,2011:
--- !u!1001 &4612139269485359908
PrefabInstance:
  m_ObjectHideFlags: 0
  serializedVersion: 2
  m_Modification:
    serializedVersion: 3
    m_TransformParent: {fileID: 0}
    m_Modifications:
    - target: {fileID: 1407827965875328049, guid: e97be7dfcaf7f3d44bcf1be453138198, type: 3}
      propertyPath: m_LocalPosition.x
      value: 0.343
      objectReference: {fileID: 0}
    - target: {fileID: 1407827965875328049, guid: e97be7dfcaf7f3d44bcf1be453138198, type: 3}
      propertyPath: m_LocalPosition.y
      value: 0.345
      objectReference: {fileID: 0}
    - target: {fileID: 3429833623212344206, guid: e97be7dfcaf7f3d44bcf1be453138198, type: 3}
      propertyPath: m_Size.x
      value: 1.44
      objectReference: {fileID: 0}
    - target: {fileID: 3429833623212344206, guid: e97be7dfcaf7f3d44bcf1be453138198, type: 3}
      propertyPath: m_Size.y
      value: 1.0628572
      objectReference: {fileID: 0}
    - target: {fileID: 3429833623212344206, guid: e97be7dfcaf7f3d44bcf1be453138198, type: 3}
      propertyPath: m_Sprite
      value: 
      objectReference: {fileID: -1489237194, guid: 7cd96175a3ebeaa4da3608fff48e1f2d, type: 3}
    - target: {fileID: 3429833623212344206, guid: e97be7dfcaf7f3d44bcf1be453138198, type: 3}
      propertyPath: m_WasSpriteAssigned
      value: 1
      objectReference: {fileID: 0}
    - target: {fileID: 5530840836344366717, guid: e97be7dfcaf7f3d44bcf1be453138198, type: 3}
      propertyPath: <BodyType>k__BackingField
      value: 16
      objectReference: {fileID: 0}
    - target: {fileID: 7308936224771015806, guid: e97be7dfcaf7f3d44bcf1be453138198, type: 3}
      propertyPath: m_Name
      value: CurvyHorn
      objectReference: {fileID: 0}
    - target: {fileID: 8218028311637969829, guid: e97be7dfcaf7f3d44bcf1be453138198, type: 3}
      propertyPath: m_LocalPosition.x
      value: 0
      objectReference: {fileID: 0}
    - target: {fileID: 8218028311637969829, guid: e97be7dfcaf7f3d44bcf1be453138198, type: 3}
      propertyPath: m_LocalPosition.y
      value: 0
      objectReference: {fileID: 0}
    - target: {fileID: 8218028311637969829, guid: e97be7dfcaf7f3d44bcf1be453138198, type: 3}
      propertyPath: m_LocalPosition.z
      value: 0
      objectReference: {fileID: 0}
    - target: {fileID: 8218028311637969829, guid: e97be7dfcaf7f3d44bcf1be453138198, type: 3}
      propertyPath: m_LocalRotation.w
      value: 1
      objectReference: {fileID: 0}
    - target: {fileID: 8218028311637969829, guid: e97be7dfcaf7f3d44bcf1be453138198, type: 3}
      propertyPath: m_LocalRotation.x
      value: 0
      objectReference: {fileID: 0}
    - target: {fileID: 8218028311637969829, guid: e97be7dfcaf7f3d44bcf1be453138198, type: 3}
      propertyPath: m_LocalRotation.y
      value: 0
      objectReference: {fileID: 0}
    - target: {fileID: 8218028311637969829, guid: e97be7dfcaf7f3d44bcf1be453138198, type: 3}
      propertyPath: m_LocalRotation.z
      value: 0
      objectReference: {fileID: 0}
    - target: {fileID: 8218028311637969829, guid: e97be7dfcaf7f3d44bcf1be453138198, type: 3}
      propertyPath: m_LocalEulerAnglesHint.x
      value: 0
      objectReference: {fileID: 0}
    - target: {fileID: 8218028311637969829, guid: e97be7dfcaf7f3d44bcf1be453138198, type: 3}
      propertyPath: m_LocalEulerAnglesHint.y
      value: 0
      objectReference: {fileID: 0}
    - target: {fileID: 8218028311637969829, guid: e97be7dfcaf7f3d44bcf1be453138198, type: 3}
      propertyPath: m_LocalEulerAnglesHint.z
      value: 0
      objectReference: {fileID: 0}
    m_RemovedComponents: []
    m_RemovedGameObjects:
    - {fileID: 3995851867204473149, guid: e97be7dfcaf7f3d44bcf1be453138198, type: 3}
    m_AddedGameObjects: []
    m_AddedComponents: []
  m_SourcePrefab: {fileID: 100100000, guid: e97be7dfcaf7f3d44bcf1be453138198, type: 3}
