%YAML 1.1
%TAG !u! tag:unity3d.com,2011:
--- !u!1001 &7165273844644522543
PrefabInstance:
  m_ObjectHideFlags: 0
  serializedVersion: 2
  m_Modification:
    serializedVersion: 3
    m_TransformParent: {fileID: 0}
    m_Modifications:
    - target: {fileID: 4672971301290691728, guid: db694e335752276418e84235a83e1004, type: 3}
      propertyPath: m_Name
      value: ChikenLeg
      objectReference: {fileID: 0}
    - target: {fileID: 4976132701676328120, guid: db694e335752276418e84235a83e1004, type: 3}
      propertyPath: m_Size.x
      value: 1.2571429
      objectReference: {fileID: 0}
    - target: {fileID: 4976132701676328120, guid: db694e335752276418e84235a83e1004, type: 3}
      propertyPath: m_Size.y
      value: 1.7142857
      objectReference: {fileID: 0}
    - target: {fileID: 4976132701676328120, guid: db694e335752276418e84235a83e1004, type: 3}
      propertyPath: m_Sprite
      value: 
      objectReference: {fileID: 1314364921, guid: 7cd96175a3ebeaa4da3608fff48e1f2d, type: 3}
    - target: {fileID: 4976132701676328120, guid: db694e335752276418e84235a83e1004, type: 3}
      propertyPath: m_WasSpriteAssigned
      value: 1
      objectReference: {fileID: 0}
    - target: {fileID: 5433246110950514607, guid: db694e335752276418e84235a83e1004, type: 3}
      propertyPath: m_Points.m_Paths.Array.data[0].Array.size
      value: 11
      objectReference: {fileID: 0}
    - target: {fileID: 5433246110950514607, guid: db694e335752276418e84235a83e1004, type: 3}
      propertyPath: m_Points.m_Paths.Array.data[0].Array.data[0].x
      value: 0.022478342
      objectReference: {fileID: 0}
    - target: {fileID: 5433246110950514607, guid: db694e335752276418e84235a83e1004, type: 3}
      propertyPath: m_Points.m_Paths.Array.data[0].Array.data[0].y
      value: 0.14706251
      objectReference: {fileID: 0}
    - target: {fileID: 5433246110950514607, guid: db694e335752276418e84235a83e1004, type: 3}
      propertyPath: m_Points.m_Paths.Array.data[0].Array.data[1].x
      value: -0.05847779
      objectReference: {fileID: 0}
    - target: {fileID: 5433246110950514607, guid: db694e335752276418e84235a83e1004, type: 3}
      propertyPath: m_Points.m_Paths.Array.data[0].Array.data[1].y
      value: 0.15666181
      objectReference: {fileID: 0}
    - target: {fileID: 5433246110950514607, guid: db694e335752276418e84235a83e1004, type: 3}
      propertyPath: m_Points.m_Paths.Array.data[0].Array.data[2].x
      value: -0.121032655
      objectReference: {fileID: 0}
    - target: {fileID: 5433246110950514607, guid: db694e335752276418e84235a83e1004, type: 3}
      propertyPath: m_Points.m_Paths.Array.data[0].Array.data[2].y
      value: 0.010725915
      objectReference: {fileID: 0}
    - target: {fileID: 5433246110950514607, guid: db694e335752276418e84235a83e1004, type: 3}
      propertyPath: m_Points.m_Paths.Array.data[0].Array.data[3].x
      value: -0.9020885
      objectReference: {fileID: 0}
    - target: {fileID: 5433246110950514607, guid: db694e335752276418e84235a83e1004, type: 3}
      propertyPath: m_Points.m_Paths.Array.data[0].Array.data[3].y
      value: -0.50520957
      objectReference: {fileID: 0}
    - target: {fileID: 5433246110950514607, guid: db694e335752276418e84235a83e1004, type: 3}
      propertyPath: m_Points.m_Paths.Array.data[0].Array.data[4].x
      value: -1.0741847
      objectReference: {fileID: 0}
    - target: {fileID: 5433246110950514607, guid: db694e335752276418e84235a83e1004, type: 3}
      propertyPath: m_Points.m_Paths.Array.data[0].Array.data[4].y
      value: -0.9021714
      objectReference: {fileID: 0}
    - target: {fileID: 5433246110950514607, guid: db694e335752276418e84235a83e1004, type: 3}
      propertyPath: m_Points.m_Paths.Array.data[0].Array.data[5].x
      value: -0.56491446
      objectReference: {fileID: 0}
    - target: {fileID: 5433246110950514607, guid: db694e335752276418e84235a83e1004, type: 3}
      propertyPath: m_Points.m_Paths.Array.data[0].Array.data[5].y
      value: -1.392177
      objectReference: {fileID: 0}
    - target: {fileID: 5433246110950514607, guid: db694e335752276418e84235a83e1004, type: 3}
      propertyPath: m_Points.m_Paths.Array.data[0].Array.data[6].x
      value: -0.20251265
      objectReference: {fileID: 0}
    - target: {fileID: 5433246110950514607, guid: db694e335752276418e84235a83e1004, type: 3}
      propertyPath: m_Points.m_Paths.Array.data[0].Array.data[6].y
      value: -0.86475706
      objectReference: {fileID: 0}
    - target: {fileID: 5433246110950514607, guid: db694e335752276418e84235a83e1004, type: 3}
      propertyPath: m_Points.m_Paths.Array.data[0].Array.data[7].x
      value: -0.00045356154
      objectReference: {fileID: 0}
    - target: {fileID: 5433246110950514607, guid: db694e335752276418e84235a83e1004, type: 3}
      propertyPath: m_Points.m_Paths.Array.data[0].Array.data[7].y
      value: -0.17686158
      objectReference: {fileID: 0}
    - target: {fileID: 5433246110950514607, guid: db694e335752276418e84235a83e1004, type: 3}
      propertyPath: m_Points.m_Paths.Array.data[0].Array.data[8].x
      value: 0.06878194
      objectReference: {fileID: 0}
    - target: {fileID: 5433246110950514607, guid: db694e335752276418e84235a83e1004, type: 3}
      propertyPath: m_Points.m_Paths.Array.data[0].Array.data[8].y
      value: -0.098484665
      objectReference: {fileID: 0}
    - target: {fileID: 5433246110950514607, guid: db694e335752276418e84235a83e1004, type: 3}
      propertyPath: m_Points.m_Paths.Array.data[0].Array.data[9].x
      value: 0.077759564
      objectReference: {fileID: 0}
    - target: {fileID: 5433246110950514607, guid: db694e335752276418e84235a83e1004, type: 3}
      propertyPath: m_Points.m_Paths.Array.data[0].Array.data[9].y
      value: -0.006224245
      objectReference: {fileID: 0}
    - target: {fileID: 5433246110950514607, guid: db694e335752276418e84235a83e1004, type: 3}
      propertyPath: m_Points.m_Paths.Array.data[0].Array.data[10].x
      value: 0.047101915
      objectReference: {fileID: 0}
    - target: {fileID: 5433246110950514607, guid: db694e335752276418e84235a83e1004, type: 3}
      propertyPath: m_Points.m_Paths.Array.data[0].Array.data[10].y
      value: 0.054899216
      objectReference: {fileID: 0}
    - target: {fileID: 6212079228640987455, guid: db694e335752276418e84235a83e1004, type: 3}
      propertyPath: <Modif>k__BackingField._stat.Array.size
      value: 5
      objectReference: {fileID: 0}
    - target: {fileID: 6212079228640987455, guid: db694e335752276418e84235a83e1004, type: 3}
      propertyPath: <Modif>k__BackingField.<Id>k__BackingField
      value: d1cd6343-c2d8-4fc4-ad27-659427f05287
      objectReference: {fileID: 0}
    - target: {fileID: 6212079228640987455, guid: db694e335752276418e84235a83e1004, type: 3}
      propertyPath: <Modif>k__BackingField.<BodyPart>k__BackingField
      value: 
      objectReference: {fileID: 7611761131955730866, guid: 62f2a5111b9399f4bbd18b7b9cf99d05, type: 3}
    - target: {fileID: 6212079228640987455, guid: db694e335752276418e84235a83e1004, type: 3}
      propertyPath: <Modif>k__BackingField._stat.Array.data[0].<Type>k__BackingField
      value: 10
      objectReference: {fileID: 0}
    - target: {fileID: 6212079228640987455, guid: db694e335752276418e84235a83e1004, type: 3}
      propertyPath: <Modif>k__BackingField._stat.Array.data[1].<Type>k__BackingField
      value: 2
      objectReference: {fileID: 0}
    - target: {fileID: 6212079228640987455, guid: db694e335752276418e84235a83e1004, type: 3}
      propertyPath: <Modif>k__BackingField._stat.Array.data[2].<Type>k__BackingField
      value: 4
      objectReference: {fileID: 0}
    - target: {fileID: 6212079228640987455, guid: db694e335752276418e84235a83e1004, type: 3}
      propertyPath: <Modif>k__BackingField._stat.Array.data[3].<Type>k__BackingField
      value: 1
      objectReference: {fileID: 0}
    - target: {fileID: 6212079228640987455, guid: db694e335752276418e84235a83e1004, type: 3}
      propertyPath: <Modif>k__BackingField._stat.Array.data[4].<Type>k__BackingField
      value: 3
      objectReference: {fileID: 0}
    - target: {fileID: 6212079228640987455, guid: db694e335752276418e84235a83e1004, type: 3}
      propertyPath: <Modif>k__BackingField._stat.Array.data[5].<Type>k__BackingField
      value: 6
      objectReference: {fileID: 0}
    - target: {fileID: 6212079228640987455, guid: db694e335752276418e84235a83e1004, type: 3}
      propertyPath: <Modif>k__BackingField._stat.Array.data[0].<Value>k__BackingField
      value: 3
      objectReference: {fileID: 0}
    - target: {fileID: 6212079228640987455, guid: db694e335752276418e84235a83e1004, type: 3}
      propertyPath: <Modif>k__BackingField._stat.Array.data[1].<Value>k__BackingField
      value: 1
      objectReference: {fileID: 0}
    - target: {fileID: 6212079228640987455, guid: db694e335752276418e84235a83e1004, type: 3}
      propertyPath: <Modif>k__BackingField._stat.Array.data[2].<Value>k__BackingField
      value: 3
      objectReference: {fileID: 0}
    - target: {fileID: 6212079228640987455, guid: db694e335752276418e84235a83e1004, type: 3}
      propertyPath: <Modif>k__BackingField._stat.Array.data[3].<Value>k__BackingField
      value: 1
      objectReference: {fileID: 0}
    - target: {fileID: 6212079228640987455, guid: db694e335752276418e84235a83e1004, type: 3}
      propertyPath: <Modif>k__BackingField._stat.Array.data[4].<Value>k__BackingField
      value: 2
      objectReference: {fileID: 0}
    - target: {fileID: 6212079228640987455, guid: db694e335752276418e84235a83e1004, type: 3}
      propertyPath: <Modif>k__BackingField._stat.Array.data[0].<IsHidden>k__BackingField
      value: 1
      objectReference: {fileID: 0}
    - target: {fileID: 6212079228640987455, guid: db694e335752276418e84235a83e1004, type: 3}
      propertyPath: <Modif>k__BackingField._stat.Array.data[1].<IsHidden>k__BackingField
      value: 1
      objectReference: {fileID: 0}
    - target: {fileID: 6212079228640987455, guid: db694e335752276418e84235a83e1004, type: 3}
      propertyPath: <Modif>k__BackingField._stat.Array.data[2].<IsHidden>k__BackingField
      value: 0
      objectReference: {fileID: 0}
    - target: {fileID: 6212079228640987455, guid: db694e335752276418e84235a83e1004, type: 3}
      propertyPath: <Modif>k__BackingField._stat.Array.data[3].<IsHidden>k__BackingField
      value: 1
      objectReference: {fileID: 0}
    - target: {fileID: 6212079228640987455, guid: db694e335752276418e84235a83e1004, type: 3}
      propertyPath: <Modif>k__BackingField._stat.Array.data[4].<IsHidden>k__BackingField
      value: 1
      objectReference: {fileID: 0}
    - target: {fileID: 6212079228640987455, guid: db694e335752276418e84235a83e1004, type: 3}
      propertyPath: <Modif>k__BackingField._stat.Array.data[5].<IsHidden>k__BackingField
      value: 1
      objectReference: {fileID: 0}
    - target: {fileID: 6212079228640987455, guid: db694e335752276418e84235a83e1004, type: 3}
      propertyPath: <Modif>k__BackingField._stat.Array.data[0].<IsTrueHidden>k__BackingField
      value: 1
      objectReference: {fileID: 0}
    - target: {fileID: 6212079228640987455, guid: db694e335752276418e84235a83e1004, type: 3}
      propertyPath: <Modif>k__BackingField._stat.Array.data[1].<IsTrueHidden>k__BackingField
      value: 1
      objectReference: {fileID: 0}
    - target: {fileID: 6212079228640987455, guid: db694e335752276418e84235a83e1004, type: 3}
      propertyPath: <Modif>k__BackingField._stat.Array.data[3].<IsTrueHidden>k__BackingField
      value: 0
      objectReference: {fileID: 0}
    - target: {fileID: 6212079228640987455, guid: db694e335752276418e84235a83e1004, type: 3}
      propertyPath: <Modif>k__BackingField._stat.Array.data[4].<IsTrueHidden>k__BackingField
      value: 0
      objectReference: {fileID: 0}
    - target: {fileID: 7864328020234078274, guid: db694e335752276418e84235a83e1004, type: 3}
      propertyPath: m_LocalPosition.x
      value: 0
      objectReference: {fileID: 0}
    - target: {fileID: 7864328020234078274, guid: db694e335752276418e84235a83e1004, type: 3}
      propertyPath: m_LocalPosition.y
      value: 0
      objectReference: {fileID: 0}
    - target: {fileID: 7864328020234078274, guid: db694e335752276418e84235a83e1004, type: 3}
      propertyPath: m_LocalPosition.z
      value: 0
      objectReference: {fileID: 0}
    - target: {fileID: 7864328020234078274, guid: db694e335752276418e84235a83e1004, type: 3}
      propertyPath: m_LocalRotation.w
      value: 1
      objectReference: {fileID: 0}
    - target: {fileID: 7864328020234078274, guid: db694e335752276418e84235a83e1004, type: 3}
      propertyPath: m_LocalRotation.x
      value: 0
      objectReference: {fileID: 0}
    - target: {fileID: 7864328020234078274, guid: db694e335752276418e84235a83e1004, type: 3}
      propertyPath: m_LocalRotation.y
      value: 0
      objectReference: {fileID: 0}
    - target: {fileID: 7864328020234078274, guid: db694e335752276418e84235a83e1004, type: 3}
      propertyPath: m_LocalRotation.z
      value: 0
      objectReference: {fileID: 0}
    - target: {fileID: 7864328020234078274, guid: db694e335752276418e84235a83e1004, type: 3}
      propertyPath: m_LocalEulerAnglesHint.x
      value: 0
      objectReference: {fileID: 0}
    - target: {fileID: 7864328020234078274, guid: db694e335752276418e84235a83e1004, type: 3}
      propertyPath: m_LocalEulerAnglesHint.y
      value: 0
      objectReference: {fileID: 0}
    - target: {fileID: 7864328020234078274, guid: db694e335752276418e84235a83e1004, type: 3}
      propertyPath: m_LocalEulerAnglesHint.z
      value: 0
      objectReference: {fileID: 0}
    - target: {fileID: 8145359191540239187, guid: db694e335752276418e84235a83e1004, type: 3}
      propertyPath: m_LocalPosition.x
      value: -0.491
      objectReference: {fileID: 0}
    - target: {fileID: 8145359191540239187, guid: db694e335752276418e84235a83e1004, type: 3}
      propertyPath: m_LocalPosition.y
      value: -0.66
      objectReference: {fileID: 0}
    m_RemovedComponents: []
    m_RemovedGameObjects: []
    m_AddedGameObjects: []
    m_AddedComponents: []
  m_SourcePrefab: {fileID: 100100000, guid: db694e335752276418e84235a83e1004, type: 3}
